{
  "type": "minecraft:crafting_shaped",
  "pattern": [
    "#P#",
    " P "
  ],
  "key": {
    "#": {
      "item": "minecraft:string"
    },
    "P": {
      "item": "minecraft:paper"
    }
  },
  "result": {
    "item": "titlescrolls:title_scroll",
    "count": 1
  }
}